arduino_code_useIDE/arduino_code_useIDE/merged_signals.vcd
$date
    2025-03-17 22:49
$end
$timescale 1ms $end
$scope module logic $end
$var wire 1 s0 70_signal $end
$var wire 1 s1 71_signal $end
$var wire 1 s2 72_signal $end
$var wire 1 s3 80_signal $end
$upscope $end
$enddefinitions $end
#0
0s0
0s1
0s2
0s3
#1
0s0
0s1
0s2
0s3
#767
1s0
#969
0s0
#2333
1s1
#2334
0s1
#2335
1s1
#2336
0s1
#2339
1s1
#2345
0s1
#2373
1s1
#2377
0s1
#2378
1s1
#2380
0s1
#2382
1s1
#2388
0s1
#2390
1s1
#2391
0s1
#2393
1s1
#2394
0s1
#2398
1s1
#2406
0s1
#2408
1s1
#2409
0s1
#2410
1s1
#2411
0s1
#2439
1s1
#2440
0s1
#2450
1s1
#2457
0s1
#2460
1s1
#2476
0s1
#2486
1s1
#2487
0s1
#2488
1s1
#2502
0s1
#2506
1s1
#2507
0s1
#2509
1s1
#2513
0s1
#2515
1s1
#2518
0s1
#2520
1s1
#2521
0s1
#2522
1s1
#2524
0s1
#2525
1s1
#2526
0s1
#2529
1s1
#2532
0s1
#2533
1s1
#2536
0s1
#2539
1s1
#2540
0s1
#2541
1s1
#2542
0s1
#2551
1s1
#2552
0s1
#2554
1s1
#2556
0s1
#2575
1s1
#2576
0s1
#2577
1s1
#2594
0s1
#3450
1s0
#3705
0s0
#4449
1s0
1s1
1s2
1s3